{
  "project_info": {
    "project_number": "1091647433552",
    "firebase_url": "https://news-8d3a0-default-rtdb.firebaseio.com",
    "project_id": "news-8d3a0",
    "storage_bucket": "news-8d3a0.appspot.com"
  },
  "client": [
    {
      "client_info": {
        "mobilesdk_app_id": "1:1091647433552:android:76f172373fadbd27d85a55",
        "android_client_info": {
          "package_name": "com.example.sample"
        }
      },
      "oauth_client": [
        {
          "client_id": "1091647433552-21v2t7qbbq3a7achhscsj4no9in90snl.apps.googleusercontent.com",
          "client_type": 1,
          "android_info": {
            "package_name": "com.example.sample",
            "certificate_hash": "021de9b0717a32c05f11c48fbd325d984dda105b"
          }
        },
        {
          "client_id": "1091647433552-dugbk5o32mfvpfcvg5gfjbb9qq88nai2.apps.googleusercontent.com",
          "client_type": 1,
          "android_info": {
            "package_name": "com.example.sample",
            "certificate_hash": "184f58c0b64fa9c660a5d34ab4203c04ee55c2bd"
          }
        },
        {
          "client_id": "1091647433552-r4pqvlej7o6klp86ehnht1r6hda99c5j.apps.googleusercontent.com",
          "client_type": 1,
          "android_info": {
            "package_name": "com.example.sample",
            "certificate_hash": "2d4374d9f28951b9a620f427c316a8a2b6cbe65e"
          }
        },
        {
          "client_id": "1091647433552-t2o69tikh28ai9gb604qpiua2jtvvhqo.apps.googleusercontent.com",
          "client_type": 3
        }
      ],
      "api_key": [
        {
          "current_key": "AIzaSyDntMbYI4XPGztn-igvE5IZUDBXtcqG9tc"
        }
      ],
      "services": {
        "appinvite_service": {
          "other_platform_oauth_client": [
            {
              "client_id": "1091647433552-t2o69tikh28ai9gb604qpiua2jtvvhqo.apps.googleusercontent.com",
              "client_type": 3
            }
          ]
        }
      }
    }
  ],
  "configuration_version": "1"
}